%YAML 1.1
%TAG !u! tag:unity3d.com,2011:
--- !u!114 &11400000
MonoBehaviour:
  m_ObjectHideFlags: 0
  m_PrefabParentObject: {fileID: 0}
  m_PrefabInternal: {fileID: 0}
  m_GameObject: {fileID: 0}
  m_Enabled: 1
  m_EditorHideFlags: 0
  m_Script: {fileID: 11500000, guid: 23a387e3f57bd7147aebc0271cf6ca9d, type: 3}
  m_Name: Tiger Ausf H
  m_EditorClassIdentifier: 
  maxHealth: 500
  vehicleName: Tiger Ausf H
  damage: 100
  ammoCapacity: 1
  reloadTime: 7
  fireRate: 60
