%YAML 1.1
%TAG !u! tag:unity3d.com,2011:
--- !u!114 &11400000
MonoBehaviour:
  m_ObjectHideFlags: 0
  m_PrefabParentObject: {fileID: 0}
  m_PrefabInternal: {fileID: 0}
  m_GameObject: {fileID: 0}
  m_Enabled: 1
  m_EditorHideFlags: 0
  m_Script: {fileID: 11500000, guid: 5f3f141c0aff8b345bf636bb8c97e9cf, type: 3}
  m_Name: 75mm T90
  m_EditorClassIdentifier: 
  maxHealth: 500
  vehicleName: 75mm T90
  damage: 100
  ammoCapacity: 1
  reloadTime: 5
  fireRate: 60
  price: 10000
  isOwned: 1
