%YAML 1.1
%TAG !u! tag:unity3d.com,2011:
--- !u!114 &11400000
MonoBehaviour:
  m_ObjectHideFlags: 0
  m_PrefabParentObject: {fileID: 0}
  m_PrefabInternal: {fileID: 0}
  m_GameObject: {fileID: 0}
  m_Enabled: 1
  m_EditorHideFlags: 0
  m_Script: {fileID: 11500000, guid: bc7c3394b7c13e84fad56962905a7bfa, type: 3}
  m_Name: New Accuracy Challenge
  m_EditorClassIdentifier: 
  name: Challenge
  rewardCoin: 100
  isActive: 0
  isCompleted: 0
  minAccuracyPercentage: 0.75
